{
	"MainRequest" :	{
        "url": "https:\/\/app.ticketmaster.com\/discovery\/v2\/events.json?apikey=c2AFQUEZX9TJarIkjyOdHsX1xKv7Kk9x&",
        "query": "keyword=",
        "city": "&city=",
        "geohash" : "&geoPoint="
    },
	"ResponseParams" : {
	    "arrayLocation" : "_embedded::events",
		"title": "name",
        "venueName": "_embedded.venues.0.name",
        "venueAddress": "_embedded.venues.0.address.line1",
        "venueURL": "_embedded.venues.0.url",
        "eventURL": "url",
        "allDay": null,
        "startTime": "dates.start.dateTime",
        "endTime": null,
        "longitude": "_embedded.venues.0.location.longitude",
        "latitude": "_embedded.venues.0.location.latitude"
    }
}
