{
	"MainRequest": {
        "url": "https:\/\/api.foursquare.com\/v2\/venues\/search?v=20180916&client_id=XCWIGWNFFEQLCSEWTH0T3WHNIP4LVESVJ5SJTS1UJACLYTGN&client_secret=BXTFIZIPANNIRVABBCV3OBJICCG0BFPGUGVI4KQQKCGXEOZW&categoryId=4d4b7105d754a06374d81259&intent=browse&radius=5000&",
        "query": "query=",
        "city": "&near=",
        "coords" : "&ll="
    },
	"ResponseParams" : {
		"arrayLocation" : "response::venues",
		"name": "name",
        "address": "location.address",
        "url": null,
        "latitude": "location.lat",
        "longitude": "location.lng",
        "cuisines": "categories.0.name",
        "thumb": null,
        "phone": "contact.formattedPhone",
        "rating": null
    }
}
